|-----|-----|-----|
|2 0 6|8 7 5|4 1 9|
|7 9 4|1 3 6|5 2 8|
|5 1 8|9 4 2|3 6 7|
|-----|-----|-----|
|6 4 9|3 8 1|2 7 5|
|8 5 2|4 6 7|9 3 1|
|1 7 3|5 2 9|6 8 4|
|-----|-----|-----|
|4 8 1|6 5 3|7 9 2|
|9 6 7|2 1 4|8 5 3|
|3 2 5|7 9 8|1 4 6|
|-----|-----|-----|

236875419794136528518942367649381275852467931173529684481653792967214853325798146
200075419004136500018332367000649027500046793117000684001653792967214800325790006


