|-----|-----|-----|
|0 0 0|2 0 9|0 0 0|
|0 4 0|0 0 0|0 8 0|
|6 0 9|8 0 3|1 0 2|
|-----|-----|-----|
|0 5 8|0 0 0|2 1 0|
|4 0 0|0 0 0|0 0 3|
|0 1 3|0 0 0|4 7 0|
|-----|-----|-----|
|8 0 4|9 0 5|6 0 1|
|0 2 0|0 0 0|0 5 0|
|0 0 0|1 0 8|0 0 0|
|-----|-----|-----|
