|-----|-----|-----|
|4 0 0|0 5 0|0 0 0|
|0 1 0|0 9 0|6 0 2|
|2 3 0|1 0 0|0 0 0|
|-----|-----|-----|
|0 0 0|5 3 0|4 0 9|
|0 6 0|0 0 0|0 5 0|
|9 0 8|0 7 4|0 0 0|
|-----|-----|-----|
|0 0 0|0 0 5|0 1 4|
|5 0 3|0 8 0|0 9 0|
|0 0 0|0 4 0|0 0 5|
|-----|-----|-----|
